[
  { "key": "secureRespTrack", "shr": "기도확보", "long": "기도 확보를 실시했는가?", "score": 10,
    "auto": true, "minusFactor": false },
  { "key": "pushChin", "shr": "턱 들기", "long": "턱 밀어올리기를 실시 했는가?", "score": 10,
    "auto": true, "minusFactor": false },
  { "key": "snippingPosition", "shr": "스니핑 포지션", "long": "스니핑 포지션을 실시했는가?", "score": 10,
    "auto": true, "minusFactor": false },
  { "key": "brokenTooth", "shr": "치아 파열", "long": "치아가 파열 되었는가?", "score": 10,
    "auto": true, "minusFactor": true },
  { "key": "bronchus", "shr": "우측 기관지", "long": "우측 기관지 삽관", "score": 10,
    "auto": true, "minusFactor": true },
  { "key": "stomachMask", "shr": "복부 팽만 (마스크)", "long": "복부 팽만 (백빌브 마스크)", "score": 10,
    "auto": true, "minusFactor": true },
  { "key": "stomachGullet", "shr": "복부 팽만 (식도)", "long": "복부 팽만 (식도 삽관)", "score": 10,
    "auto": true, "minusFactor": true },
  { "key": "brthCount", "shr": "호흡 횟수", "long": "호흡 횟수 정확도", "score": 10,
    "auto": true, "minusFactor": false },
  { "key": "brthVolumn", "shr": "호흡량", "long": "호흡량 정확도", "score": 10,
    "auto": true, "minusFactor": false },
  { "key": "exhale", "shr": "호기 시간", "long": "호기 시간 정확도", "score": 10,
    "auto": true, "minusFactor": false },
  { "key": "brthTimeDiff", "shr": "호흡 편차", "long": "호흡간 소요 시간 편차", "score": 10,
    "auto": true, "minusFactor": false },
  { "key": "brthPeriod", "shr": "호흡 간격", "long": "호흡간 소요 시간 정확도", "score": 10,
    "auto": true, "minusFactor": false },
  { "key": "totalTime", "shr": "실습 시간", "long": "실습 시간을 준수 했는가?", "score": 10,
    "auto": true, "minusFactor": false },
]
